//jsonFlickrApi(
{
  "photos": {
    "page": 1,
    "pages": 10,
    "perpage": 100,
    "total": 1000,
    "photo": [
      {
        "id": "32133131524",
        "owner": "147484878@N02",
        "secret": "664af524f5",
        "server": "2523",
        "farm": 3,
        "title": "Wow wee he so fresh",
        "ispublic": 1,
        "isfriend": 0,
        "isfamily": 0
      },
      {
        "id": "32133133614",
        "owner": "8508061@N02",
        "secret": "102e1be3af",
        "server": "3856",
        "farm": 4,
        "title": "The Snuggie is back.",
        "ispublic": 1,
        "isfriend": 0,
        "isfamily": 0
      },
      {
        "id": "32133138784",
        "owner": "16899586@N08",
        "secret": "7fed1839a7",
        "server": "2681",
        "farm": 3,
        "title": "@Celebration Factory",
        "ispublic": 1,
        "isfriend": 0,
        "isfamily": 0
      },
      {
        "id": "32133140064",
        "owner": "148197431@N04",
        "secret": "fd0cee5b05",
        "server": "653",
        "farm": 1,
        "title": "a picture for you",
        "ispublic": 1,
        "isfriend": 0,
        "isfamily": 0
      },
      {
        "id": "32133140394",
        "owner": "107167838@N03",
        "secret": "3599570cfe",
        "server": "606",
        "farm": 1,
        "title": "",
        "ispublic": 1,
        "isfriend": 0,
        "isfamily": 0
      },
      {
        "id": "32133143334",
        "owner": "147837912@N02",
        "secret": "5323e1494e",
        "server": "375",
        "farm": 1,
        "title": "Cruise",
        "ispublic": 1,
        "isfriend": 0,
        "isfamily": 0
      },
      {
        "id": "32133143884",
        "owner": "40075155@N03",
        "secret": "6d3d9daf91",
        "server": "2928",
        "farm": 3,
        "title": "20170209_214931",
        "ispublic": 1,
        "isfriend": 0,
        "isfamily": 0
      },
      {
        "id": "32133144804",
        "owner": "123828670@N08",
        "secret": "4990b15d5a",
        "server": "2887",
        "farm": 3,
        "title": "",
        "ispublic": 1,
        "isfriend": 0,
        "isfamily": 0
      },
      {
        "id": "32133145554",
        "owner": "152053114@N02",
        "secret": "21d3985a57",
        "server": "2713",
        "farm": 3,
        "title": "20161223_134854.jpg",
        "ispublic": 1,
        "isfriend": 0,
        "isfamily": 0
      },
      {
        "id": "32133146624",
        "owner": "55782076@N08",
        "secret": "13befbe3c5",
        "server": "398",
        "farm": 1,
        "title": "Picture 157 - Bottelaere, M Jun, Road - 18 februari 2017.jpg",
        "ispublic": 1,
        "isfriend": 0,
        "isfamily": 0
      },
      {
        "id": "32162340493",
        "owner": "147985316@N03",
        "secret": "01dce290bf",
        "server": "739",
        "farm": 1,
        "title": "Caught feelings https:\/\/t.co\/6zkW3ONrOb #istanbul #food #lezzet #mutfak #nefis #kebap #Tarif #yemektarifleri #foodporn #recipe #cooking #r\u2026",
        "ispublic": 1,
        "isfriend": 0,
        "isfamily": 0
      },
      {
        "id": "32162341583",
        "owner": "144820349@N04",
        "secret": "66f4359d5b",
        "server": "2347",
        "farm": 3,
        "title": "\u092e\u0941\u0938\u0932\u092e\u093e\u0928 \u0916\u093e\u0932\u0940 \u092c\u0948\u0920\u0947\u0917\u093e \u0924\u094b \u092c\u091a\u094d\u091a\u0947 \u092a\u0948\u0926\u093e \u0915\u0930\u0947\u0917\u093e - \u0906\u095b\u092e \u0916\u093e\u0928",
        "ispublic": 1,
        "isfriend": 0,
        "isfamily": 0
      },
      {
        "id": "32162343923",
        "owner": "151134189@N03",
        "secret": "7fa79b7a9a",
        "server": "345",
        "farm": 1,
        "title": "\u03a4\u03b7\u03bd \u03ad\u03bb\u03bf\u03c5\u03c3\u03b5 \u03ba\u03c1\u03cd\u03bf\u03c2 \u03b9\u03b4\u03c1\u03ce\u03c4\u03b1\u03c2 &#8211; \u0394\u03b5\u03bd \u03ad\u03b2\u03c1\u03b9\u03c3\u03ba\u03b5 \u03bc\u03ad\u03c1\u03bf\u03c2 \u03bd\u03b1 \u03ba\u03ac\u03bd\u03b5\u03b9 \u03c4\u03b7\u03bd \u03b1\u03bd\u03ac\u03b3\u03ba\u03b7 \u03c4\u03b7\u03c2 \u03ba\u03b1\u03b9 \u03c4\u03b7\u03bd \u03ad\u03ba\u03b1\u03bd\u03b5 \u03bc\u03ad\u03c3\u03b1 \u03c3\u03b5 \u03b3\u03b5\u03bc\u03ac\u03c4\u03bf \u03bb\u03b5\u03c9\u03c6\u03bf\u03c1\u03b5\u03af\u03bf!0",
        "ispublic": 1,
        "isfriend": 0,
        "isfamily": 0
      },
      {
        "id": "32162344353",
        "owner": "30703324@N06",
        "secret": "b73f5907f9",
        "server": "2881",
        "farm": 3,
        "title": "34ec26c802e34f73a1a31a6dd1673555.jpg",
        "ispublic": 1,
        "isfriend": 0,
        "isfamily": 0
      },
      {
        "id": "32162348873",
        "owner": "63496177@N04",
        "secret": "805a7368f8",
        "server": "467",
        "farm": 1,
        "title": "Untitled",
        "ispublic": 1,
        "isfriend": 0,
        "isfamily": 0
      },
      {
        "id": "32162349793",
        "owner": "128376669@N04",
        "secret": "f70c52c8bd",
        "server": "564",
        "farm": 1,
        "title": "\u0421\u043a\u0430\u0447\u0430\u0442\u044c \u0431\u0435\u0441\u043f\u043b\u0430\u0442\u043d\u043e AutoCAD \u0438 Maya \u043d\u0430 \u0440\u0443\u0441\u0441\u043a\u043e\u043c - \u0438\u043d\u0441\u0442\u0440\u0443\u043a\u0446\u0438\u044f 2017\u0433.",
        "ispublic": 1,
        "isfriend": 0,
        "isfamily": 0
      },
      {
        "id": "32162351393",
        "owner": "47595682@N04",
        "secret": "1ece0f4443",
        "server": "2714",
        "farm": 3,
        "title": "IMG_0425",
        "ispublic": 1,
        "isfriend": 0,
        "isfamily": 0
      },
      {
        "id": "32162351643",
        "owner": "63835401@N05",
        "secret": "a7fde45d48",
        "server": "3840",
        "farm": 4,
        "title": "IMG_20170213_110604848",
        "ispublic": 1,
        "isfriend": 0,
        "isfamily": 0
      },
      {
        "id": "32162351943",
        "owner": "48984348@N03",
        "secret": "75d71e166a",
        "server": "2830",
        "farm": 3,
        "title": "Daily Logo 31\/50 - Ice Cream Logo",
        "ispublic": 1,
        "isfriend": 0,
        "isfamily": 0
      },
      {
        "id": "32162352183",
        "owner": "141358706@N08",
        "secret": "95b79dce82",
        "server": "3888",
        "farm": 4,
        "title": "Nick Jonas 1410 new shoes on sale already some have been sold 2017",
        "ispublic": 1,
        "isfriend": 0,
        "isfamily": 0
      },
      {
        "id": "32595825940",
        "owner": "147922397@N03",
        "secret": "1cd57b95e2",
        "server": "2514",
        "farm": 3,
        "title": "IMG_0869",
        "ispublic": 1,
        "isfriend": 0,
        "isfamily": 0
      },
      {
        "id": "32595827000",
        "owner": "134087031@N04",
        "secret": "7266b98073",
        "server": "3812",
        "farm": 4,
        "title": "2017-02-18_07-16-21",
        "ispublic": 1,
        "isfriend": 0,
        "isfamily": 0
      },
      {
        "id": "32595827500",
        "owner": "132791403@N08",
        "secret": "8396499f33",
        "server": "3668",
        "farm": 4,
        "title": "IP Camera E-mail Alert-md snap(2017-02-19 06:16:20)",
        "ispublic": 1,
        "isfriend": 0,
        "isfamily": 0
      },
      {
        "id": "32595827530",
        "owner": "8854491@N05",
        "secret": "2b4ebee50c",
        "server": "3806",
        "farm": 4,
        "title": "febrero 17-2-2017 485",
        "ispublic": 1,
        "isfriend": 0,
        "isfamily": 0
      },
      {
        "id": "32595830540",
        "owner": "90803693@N05",
        "secret": "634d96d8eb",
        "server": "688",
        "farm": 1,
        "title": "Vasco Baina",
        "ispublic": 1,
        "isfriend": 0,
        "isfamily": 0
      },
      {
        "id": "32595832490",
        "owner": "86962724@N07",
        "secret": "3e3df6570f",
        "server": "2950",
        "farm": 3,
        "title": "Vue sur Saint Michel d'Eau Douce",
        "ispublic": 1,
        "isfriend": 0,
        "isfamily": 0
      },
      {
        "id": "32595833350",
        "owner": "39214467@N07",
        "secret": "d45233752b",
        "server": "2120",
        "farm": 3,
        "title": "Unsettling Times",
        "ispublic": 1,
        "isfriend": 0,
        "isfamily": 0
      },
      {
        "id": "32595833670",
        "owner": "71188731@N00",
        "secret": "b9990d8794",
        "server": "2484",
        "farm": 3,
        "title": "FOXTROT ALERT",
        "ispublic": 1,
        "isfriend": 0,
        "isfamily": 0
      },
      {
        "id": "32595833970",
        "owner": "147156170@N05",
        "secret": "b5c6b6b990",
        "server": "2317",
        "farm": 3,
        "title": "",
        "ispublic": 1,
        "isfriend": 0,
        "isfamily": 0
      },
      {
        "id": "32595834800",
        "owner": "131806303@N07",
        "secret": "a7a20a2322",
        "server": "2281",
        "farm": 3,
        "title": "Coucher de soleil   ile de r\u00e9",
        "ispublic": 1,
        "isfriend": 0,
        "isfamily": 0
      },
      {
        "id": "32595836620",
        "owner": "49118647@N08",
        "secret": "c1a42951f7",
        "server": "2164",
        "farm": 3,
        "title": "CamGrab [LW2-20170218211640.jpg]",
        "ispublic": 1,
        "isfriend": 0,
        "isfamily": 0
      },
      {
        "id": "32595837300",
        "owner": "129177348@N03",
        "secret": "e2f5a8289b",
        "server": "2540",
        "farm": 3,
        "title": "1487452621.BouncingBall.jpg",
        "ispublic": 1,
        "isfriend": 0,
        "isfamily": 0
      },
      {
        "id": "32595837650",
        "owner": "138126189@N02",
        "secret": "ef384454cd",
        "server": "2071",
        "farm": 3,
        "title": "Dead Mens Tale",
        "ispublic": 1,
        "isfriend": 0,
        "isfamily": 0
      },
      {
        "id": "32595839350",
        "owner": "62208072@N08",
        "secret": "05b919a4f7",
        "server": "549",
        "farm": 1,
        "title": "Meadowlark Gardens Feb 2017",
        "ispublic": 1,
        "isfriend": 0,
        "isfamily": 0
      },
      {
        "id": "32595840070",
        "owner": "125702142@N05",
        "secret": "acec0bc04d",
        "server": "2487",
        "farm": 3,
        "title": "2c1ee9c51efe6b291755a3a6602caa2a",
        "ispublic": 1,
        "isfriend": 0,
        "isfamily": 0
      },
      {
        "id": "32595840220",
        "owner": "64230701@N06",
        "secret": "4bc92a5c8e",
        "server": "2306",
        "farm": 3,
        "title": "Southern Africa 2017 Wildlife-10130.jpg",
        "ispublic": 1,
        "isfriend": 0,
        "isfamily": 0
      },
      {
        "id": "32595840310",
        "owner": "146114564@N02",
        "secret": "bba760e482",
        "server": "763",
        "farm": 1,
        "title": "Gym Equipment Bundles in Baconend Green #Exercise #Machine #Packages #Baconend #Green https:\/\/t.co\/LUFIBmaaA4",
        "ispublic": 1,
        "isfriend": 0,
        "isfamily": 0
      },
      {
        "id": "32595840410",
        "owner": "67655413@N04",
        "secret": "a2ca6b65a0",
        "server": "630",
        "farm": 1,
        "title": "Wet day",
        "ispublic": 1,
        "isfriend": 0,
        "isfamily": 0
      },
      {
        "id": "32595840540",
        "owner": "61994128@N02",
        "secret": "0ef98f38d2",
        "server": "2697",
        "farm": 3,
        "title": "DSC_5587",
        "ispublic": 1,
        "isfriend": 0,
        "isfamily": 0
      },
      {
        "id": "32595840690",
        "owner": "16656106@N00",
        "secret": "9d4aa8864d",
        "server": "3742",
        "farm": 4,
        "title": "ZF2Y6277-2.jpg",
        "ispublic": 1,
        "isfriend": 0,
        "isfamily": 0
      },
      {
        "id": "32595841640",
        "owner": "134913423@N07",
        "secret": "b39b3736cf",
        "server": "522",
        "farm": 1,
        "title": "_2110575.jpg",
        "ispublic": 1,
        "isfriend": 0,
        "isfamily": 0
      },
      {
        "id": "32595842230",
        "owner": "135403731@N05",
        "secret": "46b729568b",
        "server": "2090",
        "farm": 3,
        "title": "Painted Bunting",
        "ispublic": 1,
        "isfriend": 0,
        "isfamily": 0
      },
      {
        "id": "32822519792",
        "owner": "128356181@N02",
        "secret": "9cf20e221a",
        "server": "3866",
        "farm": 4,
        "title": "Leuven City Belgium-24-bewerkt.jpg",
        "ispublic": 1,
        "isfriend": 0,
        "isfamily": 0
      },
      {
        "id": "32822521562",
        "owner": "73793980@N00",
        "secret": "5cc0534b1f",
        "server": "2382",
        "farm": 3,
        "title": "Cda17-0372.jpg",
        "ispublic": 1,
        "isfriend": 0,
        "isfamily": 0
      },
      {
        "id": "32822523292",
        "owner": "34947096@N04",
        "secret": "35ca2fe567",
        "server": "2285",
        "farm": 3,
        "title": "407_170129_6D.jpg",
        "ispublic": 1,
        "isfriend": 0,
        "isfamily": 0
      },
      {
        "id": "32822525012",
        "owner": "145181016@N08",
        "secret": "b34610906f",
        "server": "509",
        "farm": 1,
        "title": "2.0k+ Abayas Models Shared By SUBHAN ABAYAS.",
        "ispublic": 1,
        "isfriend": 0,
        "isfamily": 0
      },
      {
        "id": "32822526322",
        "owner": "151999580@N03",
        "secret": "006aa31bef",
        "server": "352",
        "farm": 1,
        "title": "Soilwork_Schlachthof_WI_004.jpg",
        "ispublic": 1,
        "isfriend": 0,
        "isfamily": 0
      },
      {
        "id": "32822526612",
        "owner": "9141680@N07",
        "secret": "3c5a536c2b",
        "server": "2070",
        "farm": 3,
        "title": "",
        "ispublic": 1,
        "isfriend": 0,
        "isfamily": 0
      },
      {
        "id": "32822527822",
        "owner": "150989448@N06",
        "secret": "d7f81aa745",
        "server": "2102",
        "farm": 3,
        "title": "",
        "ispublic": 1,
        "isfriend": 0,
        "isfamily": 0
      },
      {
        "id": "32822528152",
        "owner": "16708569@N08",
        "secret": "bf1519c370",
        "server": "758",
        "farm": 1,
        "title": "_MG_8536.jpg",
        "ispublic": 1,
        "isfriend": 0,
        "isfamily": 0
      },
      {
        "id": "32822528772",
        "owner": "144545963@N07",
        "secret": "6d709ffa51",
        "server": "763",
        "farm": 1,
        "title": "Pinned to Tweeted on Pinterest",
        "ispublic": 1,
        "isfriend": 0,
        "isfamily": 0
      },
      {
        "id": "32852281231",
        "owner": "143934773@N04",
        "secret": "54eeb31401",
        "server": "458",
        "farm": 1,
        "title": "20170101_143914",
        "ispublic": 1,
        "isfriend": 0,
        "isfamily": 0
      },
      {
        "id": "32852284241",
        "owner": "74130864@N04",
        "secret": "9636dcf9e8",
        "server": "721",
        "farm": 1,
        "title": "Who needs a crowd shot for their Louisiana Film Prize film? TODAY, the Krewe of Centaur parade rolls at 4:00pm! Here's some info on where to set up to get that $50k winning shot... http:\/\/ift.tt\/2lwrGPS",
        "ispublic": 1,
        "isfriend": 0,
        "isfamily": 0
      },
      {
        "id": "32852287361",
        "owner": "138367818@N04",
        "secret": "af38278629",
        "server": "2815",
        "farm": 3,
        "title": "Honda Motor Company - Motorcycle",
        "ispublic": 1,
        "isfriend": 0,
        "isfamily": 0
      },
      {
        "id": "32852289121",
        "owner": "145964741@N05",
        "secret": "4bb1510da2",
        "server": "2238",
        "farm": 3,
        "title": "Skull by liners",
        "ispublic": 1,
        "isfriend": 0,
        "isfamily": 0
      },
      {
        "id": "32852291061",
        "owner": "67210916@N08",
        "secret": "5b2a6e70a3",
        "server": "510",
        "farm": 1,
        "title": "Amanecer en Guissona",
        "ispublic": 1,
        "isfriend": 0,
        "isfamily": 0
      },
      {
        "id": "32852292021",
        "owner": "122716893@N05",
        "secret": "875efa6e93",
        "server": "568",
        "farm": 1,
        "title": "",
        "ispublic": 1,
        "isfriend": 0,
        "isfamily": 0
      },
      {
        "id": "32852294081",
        "owner": "149520756@N07",
        "secret": "27d37b9697",
        "server": "2949",
        "farm": 3,
        "title": "Thu\u1ed1c d\u00e2n gian ch\u1eefa vi\u00eam h\u1ecdng",
        "ispublic": 1,
        "isfriend": 0,
        "isfamily": 0
      },
      {
        "id": "32852295421",
        "owner": "147795574@N05",
        "secret": "9a94eecac7",
        "server": "566",
        "farm": 1,
        "title": "",
        "ispublic": 1,
        "isfriend": 0,
        "isfamily": 0
      },
      {
        "id": "32852296991",
        "owner": "60581498@N06",
        "secret": "1f343345f3",
        "server": "2251",
        "farm": 3,
        "title": "",
        "ispublic": 1,
        "isfriend": 0,
        "isfamily": 0
      },
      {
        "id": "32852297421",
        "owner": "129320333@N05",
        "secret": "d14a428e13",
        "server": "3765",
        "farm": 4,
        "title": "Bisque fire second layer",
        "ispublic": 1,
        "isfriend": 0,
        "isfamily": 0
      },
      {
        "id": "32852297821",
        "owner": "35258783@N06",
        "secret": "874cef5ec5",
        "server": "2769",
        "farm": 3,
        "title": "DSCF8948-2",
        "ispublic": 1,
        "isfriend": 0,
        "isfamily": 0
      },
      {
        "id": "32852299681",
        "owner": "86096154@N00",
        "secret": "547a7d8900",
        "server": "2423",
        "farm": 3,
        "title": "IMG_1113.jpg",
        "ispublic": 1,
        "isfriend": 0,
        "isfamily": 0
      },
      {
        "id": "32852299961",
        "owner": "144555552@N02",
        "secret": "501e2dae8e",
        "server": "2361",
        "farm": 3,
        "title": "10+ Hilarious Tweets By Celebrity Parents",
        "ispublic": 1,
        "isfriend": 0,
        "isfamily": 0
      },
      {
        "id": "32852301061",
        "owner": "151002365@N07",
        "secret": "599ce506a1",
        "server": "2646",
        "farm": 3,
        "title": "\u843d\u7fbd\u677e",
        "ispublic": 1,
        "isfriend": 0,
        "isfamily": 0
      },
      {
        "id": "32852301581",
        "owner": "150885158@N06",
        "secret": "dd44f9c39a",
        "server": "2898",
        "farm": 3,
        "title": "",
        "ispublic": 1,
        "isfriend": 0,
        "isfamily": 0
      },
      {
        "id": "32852303581",
        "owner": "125843940@N07",
        "secret": "195a5bcd6a",
        "server": "2667",
        "farm": 3,
        "title": "Pelut, tonis 2017",
        "ispublic": 1,
        "isfriend": 0,
        "isfamily": 0
      },
      {
        "id": "32852304351",
        "owner": "28779137@N06",
        "secret": "0e1857a690",
        "server": "2547",
        "farm": 3,
        "title": "DSC08361",
        "ispublic": 1,
        "isfriend": 0,
        "isfamily": 0
      },
      {
        "id": "32852304901",
        "owner": "86578060@N03",
        "secret": "26df5edf36",
        "server": "2720",
        "farm": 3,
        "title": "How I See it  Own Vision Alternative Nature Plant Flower Fragility Beauty In Nature Wet Flower Head Freshness Urban Nature Selective Color Color Splash Blueish Shades Of Pink MnMl Mnmlsm Minimalism Minimalist Minimalmood Minimalistic Minimal Minimalobsess",
        "ispublic": 1,
        "isfriend": 0,
        "isfamily": 0
      },
      {
        "id": "32852305991",
        "owner": "134367456@N07",
        "secret": "8a4b55a82f",
        "server": "2573",
        "farm": 3,
        "title": "2017-02-18_10-17-25",
        "ispublic": 1,
        "isfriend": 0,
        "isfamily": 0
      },
      {
        "id": "32936045166",
        "owner": "130484833@N03",
        "secret": "0e608d02f9",
        "server": "2476",
        "farm": 3,
        "title": "Path once taken",
        "ispublic": 1,
        "isfriend": 0,
        "isfamily": 0
      },
      {
        "id": "32936047086",
        "owner": "127157557@N07",
        "secret": "fc1b20d793",
        "server": "712",
        "farm": 1,
        "title": "2.18.17 Melting Snow",
        "ispublic": 1,
        "isfriend": 0,
        "isfamily": 0
      },
      {
        "id": "32936051536",
        "owner": "63820785@N07",
        "secret": "bedec42e74",
        "server": "2612",
        "farm": 3,
        "title": "Scene of Washington's cavalry charge Guilford Courthouse NC July 23 1976.jpg",
        "ispublic": 1,
        "isfriend": 0,
        "isfamily": 0
      },
      {
        "id": "32936051546",
        "owner": "7839903@N02",
        "secret": "9965aa6285",
        "server": "2408",
        "farm": 3,
        "title": "Brunswick",
        "ispublic": 1,
        "isfriend": 0,
        "isfamily": 0
      },
      {
        "id": "32936052276",
        "owner": "125549037@N02",
        "secret": "011fbecaca",
        "server": "3824",
        "farm": 4,
        "title": "OM170246",
        "ispublic": 1,
        "isfriend": 0,
        "isfamily": 0
      },
      {
        "id": "32936052556",
        "owner": "143657533@N04",
        "secret": "f59803603a",
        "server": "288",
        "farm": 1,
        "title": "Hey anyone got gold rulons or brulons he has 200$ size 7-7.5",
        "ispublic": 1,
        "isfriend": 0,
        "isfamily": 0
      },
      {
        "id": "32936054056",
        "owner": "150820775@N04",
        "secret": "eb37e86874",
        "server": "2943",
        "farm": 3,
        "title": "20160419_222524",
        "ispublic": 1,
        "isfriend": 0,
        "isfamily": 0
      },
      {
        "id": "32936055976",
        "owner": "147918624@N06",
        "secret": "109c08a031",
        "server": "2293",
        "farm": 3,
        "title": "LIVE NOW: MSU_Basketball takes on BoilerBall live on TSN2! https:\/\/t.co\/1DEkOMuE9d",
        "ispublic": 1,
        "isfriend": 0,
        "isfamily": 0
      },
      {
        "id": "32936058876",
        "owner": "101480277@N08",
        "secret": "d18c49d6c8",
        "server": "590",
        "farm": 1,
        "title": "Are refugees coming or going? Reuters spotted Sudanese immigrants escaping the U.S. to Canada https:\/\/t.co\/k9CZq7eX9M",
        "ispublic": 1,
        "isfriend": 0,
        "isfamily": 0
      },
      {
        "id": "32936059736",
        "owner": "145448306@N06",
        "secret": "f4216a405c",
        "server": "2303",
        "farm": 3,
        "title": "",
        "ispublic": 1,
        "isfriend": 0,
        "isfamily": 0
      },
      {
        "id": "32936060246",
        "owner": "126706511@N03",
        "secret": "8b418f86c7",
        "server": "717",
        "farm": 1,
        "title": "IMG_0099.JPG",
        "ispublic": 1,
        "isfriend": 0,
        "isfamily": 0
      },
      {
        "id": "32936060486",
        "owner": "96235553@N02",
        "secret": "52d148e735",
        "server": "3791",
        "farm": 4,
        "title": "EVG_4268",
        "ispublic": 1,
        "isfriend": 0,
        "isfamily": 0
      },
      {
        "id": "32977058905",
        "owner": "11071604@N06",
        "secret": "9eb152ded0",
        "server": "3814",
        "farm": 4,
        "title": "DSC03873",
        "ispublic": 1,
        "isfriend": 0,
        "isfamily": 0
      },
      {
        "id": "32977060705",
        "owner": "145779313@N02",
        "secret": "74e5ef7e94",
        "server": "2042",
        "farm": 3,
        "title": "_TAN1054",
        "ispublic": 1,
        "isfriend": 0,
        "isfamily": 0
      },
      {
        "id": "32977064435",
        "owner": "129874809@N02",
        "secret": "09ea06fe9b",
        "server": "2553",
        "farm": 3,
        "title": "Mardi Gras 2017-Carencro La",
        "ispublic": 1,
        "isfriend": 0,
        "isfamily": 0
      },
      {
        "id": "32977069975",
        "owner": "146219602@N02",
        "secret": "6db518c650",
        "server": "3854",
        "farm": 4,
        "title": "Chile, February 2017",
        "ispublic": 1,
        "isfriend": 0,
        "isfamily": 0
      },
      {
        "id": "32977072965",
        "owner": "143211982@N06",
        "secret": "0491b44ae7",
        "server": "776",
        "farm": 1,
        "title": "Astroturf Rejuvenation Cleaning Maintenance in Lisburn #Astroturf #Rejuvenation #Cleaning #Maintenance #Lisburn https:\/\/t.co\/5wHH8re97i",
        "ispublic": 1,
        "isfriend": 0,
        "isfamily": 0
      },
      {
        "id": "32977073275",
        "owner": "152053744@N02",
        "secret": "0b6b86c1f2",
        "server": "2243",
        "farm": 3,
        "title": "\u0662\u0660\u0661\u0667\u0660\u0661\u0662\u0660_\u0661\u0665\u0661\u0665\u0665\u0669",
        "ispublic": 1,
        "isfriend": 0,
        "isfamily": 0
      },
      {
        "id": "32977078545",
        "owner": "25157502@N03",
        "secret": "326102817e",
        "server": "2262",
        "farm": 3,
        "title": "2017 Cortez Commercial Fishing Festival",
        "ispublic": 1,
        "isfriend": 0,
        "isfamily": 0
      },
      {
        "id": "32977078915",
        "owner": "75553287@N00",
        "secret": "496646c781",
        "server": "698",
        "farm": 1,
        "title": "",
        "ispublic": 1,
        "isfriend": 0,
        "isfamily": 0
      },
      {
        "id": "32977079035",
        "owner": "32068879@N07",
        "secret": "da28ca433c",
        "server": "2425",
        "farm": 3,
        "title": "Me  James and. Heather overlooking Megan's Bay",
        "ispublic": 1,
        "isfriend": 0,
        "isfamily": 0
      },
      {
        "id": "32977080105",
        "owner": "62438300@N07",
        "secret": "0af2c2936a",
        "server": "2278",
        "farm": 3,
        "title": "Bohemian Stevie. \ud83c\udf19. | | | | | #stevienicks #bohochic #70srock #queenofrock #crystalvision #selfie #rememberme #bohemian #bohemianstyle #purple #fleetwoodmac #stevienicksshawl #stevie #moon #witch #whitewitch #wicca #magic #magicwoman #stars #photogra",
        "ispublic": 1,
        "isfriend": 0,
        "isfamily": 0
      },
      {
        "id": "32977081155",
        "owner": "143374751@N05",
        "secret": "be7120e6b2",
        "server": "537",
        "farm": 1,
        "title": "Slaughter Completes Public Safety Dispatch Academy | SurfKY News \u2013 SurfKY News (registration) (blog)",
        "ispublic": 1,
        "isfriend": 0,
        "isfamily": 0
      },
      {
        "id": "32977081885",
        "owner": "150888405@N04",
        "secret": "0aa1742a3b",
        "server": "2168",
        "farm": 3,
        "title": "2017-02-18_01-49-32",
        "ispublic": 1,
        "isfriend": 0,
        "isfamily": 0
      },
      {
        "id": "32977081965",
        "owner": "26213001@N03",
        "secret": "d98280179c",
        "server": "464",
        "farm": 1,
        "title": "Thanks!",
        "ispublic": 1,
        "isfriend": 0,
        "isfamily": 0
      },
      {
        "id": "32977083275",
        "owner": "116791054@N04",
        "secret": "d1460ab83f",
        "server": "3853",
        "farm": 4,
        "title": "I46A9476",
        "ispublic": 1,
        "isfriend": 0,
        "isfamily": 0
      },
      {
        "id": "32977084155",
        "owner": "93349399@N08",
        "secret": "5831065b37",
        "server": "2829",
        "farm": 3,
        "title": "Day 049 Tea party",
        "ispublic": 1,
        "isfriend": 0,
        "isfamily": 0
      },
      {
        "id": "32977085405",
        "owner": "42958636@N07",
        "secret": "c2284b7aef",
        "server": "426",
        "farm": 1,
        "title": "",
        "ispublic": 1,
        "isfriend": 0,
        "isfamily": 0
      },
      {
        "id": "32977086325",
        "owner": "147909181@N07",
        "secret": "e0f82fbe21",
        "server": "2262",
        "farm": 3,
        "title": "Damp Proof Specialists in Cookstown #Cookstown https:\/\/t.co\/J6nh01RS8a",
        "ispublic": 1,
        "isfriend": 0,
        "isfamily": 0
      },
      {
        "id": "32977088075",
        "owner": "43153185@N00",
        "secret": "176e95fdf4",
        "server": "648",
        "farm": 1,
        "title": "Dream Along With Mickey",
        "ispublic": 1,
        "isfriend": 0,
        "isfamily": 0
      }
    ]
  },
  "stat": "ok"
}
//)